{
    "total": 20,
    "currentPage": 1,
    "totalPages": 2,    
    "invoices": [
        {
            "_id": 1,
            "invoice_number": "FD6328",
            "company": "Blisk Inc",
            "amount": "$12.234,00",
            "status": "Paid",
            "date": "Jun 18 2018"
        },
        {
            "_id": 2,     
            "invoice_number": "FD6324",
            "company": "ShopIT Inc",
            "amount": "$9.100,00",
            "status": "Paid",
            "date": "Jun 15 2018"
        },
        {
            "_id": 3,      
            "invoice_number": "FD6328",
            "company": "Robertson Inc",
            "amount": "$8.234,00",
            "status": "Pending",
            "date": "Jun 12 2018"
        }, 
        {
            "_id": 4,      
            "company": "Company LTD",
            "invoice_number": "FD6328",
            "amount": "$5.000,00",
            "status": "Rejected",
            "date": "Jun 10 2018"
        }, 
        {
            "_id": 5,
            "invoice_number": "FD6328",
            "company": "Jessica Shop",
            "amount": "$734,00",
            "status": "Paid",
            "date": "Jun 09 2018"
        },
        {
            "_id": 1,        
            "invoice_number": "FD6328",
            "company": "HPSS Inc",
            "amount": "$9.567,00",
            "status": "Pending",
            "date": "Jun 08 2018"
        },
        {
            "_id": 6,      
            "invoice_number": "FD6328",
            "company": "Gale inc",
            "amount": "$11.345,00",
            "status": "Paid",
            "date": "Jun 18 2018"
        },
        {
            "_id": 7,     
            "invoice_number": "FD6328",
            "company": "Quantum Inc",
            "amount": "$3.222,00",
            "status": "Paid",
            "date": "Jun 18 2018"
        }                                                        
    ]
}