{
    "total": 20,
    "currentPage": 2,
    "totalPages": 2,        
    "products": [
        {
            "_id": 7,
            "title": "Portelan teacup",
            "subTitle": "NordWood & Norse",
            "price": 59,
            "isOnSale": false,
            "images": [
                "assets/dummy_data/imgs/products_medium/3.jpg"
            ],
            "imagesLarge": [
                "assets/dummy_data/imgs/products_medium/product-large.jpg"
            ]             
        },        
        {
            "_id": 8,
            "title": "H&S Headphones",
            "subTitle": "Electronics",
            "price": 290,
            "isOnSale": false,
            "images": [
                "assets/dummy_data/imgs/products_medium/2.jpg"
            ],
            "imagesLarge": [
                "assets/dummy_data/imgs/products_medium/product-large.jpg"
            ]             
        },
        {
            "_id": 9,
            "title": "Magnolia bag",
            "subTitle": "Lifestyle",
            "price": 80,
            "isOnSale": false,
            "images": [
                "assets/dummy_data/imgs/products_medium/1.jpg"
            ],
            "imagesLarge": [
                "assets/dummy_data/imgs/products_medium/product-large.jpg"
            ]             
        }                                      
    ]
}