{
    "total": 20,
    "currentPage": 1,
    "totalPages": 2,    
    "users": [
        {
            "_id": 1,
            "first_name": "Anna",
            "last_name": "Hamilton",
            "company": "Blisk Inc",
            "email": "anna@company.co",
            "phone": "(541) 754-3010",
            "link": "/users/kara-thrace",
            "thumb": "assets/dummy_data/imgs/user_2.jpg"
        },
        {
            "_id": 2,
            "first_name": "Jason",
            "last_name": "Bourne",            
            "company": "ShopIT Inc",
            "email": "jason@company.co",
            "phone": "(541) 754-3010",
            "link": "/users/kara-thrace"
        },
        {
            "_id": 3,
            "first_name": "Mark",
            "last_name": "Robertson",            
            "company": "Robertson Inc",
            "email": "mark.rob@company.co",
            "phone": "(541) 754-3010",
            "link": "/users/kara-thrace",
            "thumb": "assets/dummy_data/imgs/user_4.jpg"
        }, 
        {
            "_id": 4,
            "first_name": "Jack",
            "last_name": "Martin",            
            "company": "Company LTD",
            "email": "jack.m@company.co",
            "phone": "(541) 754-3010",
            "link": "/users/kara-thrace",
            "thumb": "assets/dummy_data/imgs/user_5.jpg"
        }, 
        {
            "_id": 5,
            "first_name": "Jesica",
            "last_name": "Fisher",            
            "company": "Jessica Shop",
            "email": "jessica@dave.com",
            "phone": "(541) 754-3010",
            "link": "/users/kara-thrace",
            "thumb": "assets/dummy_data/imgs/user_11.jpg"
        },
        {
            "_id": 1,
            "first_name": "Anna",
            "last_name": "Dale",            
            "company": "HPSS Inc",
            "email": "anna@dave.com",
            "phone": "(541) 754-3010",
            "link": "/users/kara-thrace",
            "thumb": "assets/dummy_data/imgs/user_8.jpg"
        },
        {
            "_id": 6,
            "first_name": "Robert",
            "last_name": "Gale",            
            "company": "Gale inc",
            "email": "robert@dave.com",
            "phone": "(541) 754-3010",
            "link": "/users/kara-thrace",
            "thumb": "assets/dummy_data/imgs/user_9.jpg"
        },
        {
            "_id": 7,
            "first_name": "Antonia",
            "last_name": "June",            
            "company": "Quantum Inc",
            "email": "antonia@dave.com",
            "phone": "(541) 754-3010",
            "link": "/users/kara-thrace",
            "thumb": "assets/dummy_data/imgs/user_10.jpg"
        }                                                        
    ]
}